{
  "projects": [
    {
      "id": "3",
      "name": "UTML"
    },
    {
      "id": "UTLS",
      "name": "UTLS"
    }
	{
      "id": "11709",
      "name": "BIOTOPE"
    },
	{
      "id": "CER",
      "name": "CER"
    }
    
  ]
}